Integrated Digital East Antarctica, software and tools – hypertidy-blog
…
These data objects are geospatial-standard raster layers, for extracting values at points, aggregating values under polygons and lines, and calculating other aggregate summaries over time. There are helpers specific to raadtools that will extract values at long,lat,time points, this is a convenience enabled by the geospatial-standard status of these layers (extent, shape, crs).

nuyina$adt <- extract(read_adt_daily, nuyina)
dplyr::sample_n(nuyina[, c("longitude", "latitude", "adt")], 100)

# A tibble: 100 × 3
   longitude latitude    adt
       <dbl>    <dbl>  <dbl>
 1      148.    -43.5  0.565
 2      129.    -53.2 -0.379
 3      147.    -42.9 NA    
 4      111.    -59.9 -1.12 
 5      140.    -47.0  0.569
 6      110.    -61.6 -1.26 
 7      131.    -52.1 -0.222
 8      151.    -45.4  0.575
 9      147.    -42.9 NA    
10      117.    -58.7 -0.874
# ℹ 90 more rows

Just under the hood of raadtools are file-collection lists that implicitly define a “data cube” that exists for a given variable. These look like this:

(files <- sstfiles(returnfiles = TRUE))

# A tibble: 15,862 × 3
   date                fullname                                            root 
   <dttm>              <chr>                                               <chr>
 1 1981-09-01 00:00:00 /rdsi/PUBLIC/raad/data/www.ncei.noaa.gov/data/sea-… /rds…
 2 1981-09-02 00:00:00 /rdsi/PUBLIC/raad/data/www.ncei.noaa.gov/data/sea-… /rds…
 3 1981-09-03 00:00:00 /rdsi/PUBLIC/raad/data/www.ncei.noaa.gov/data/sea-… /rds…
 4 1981-09-04 00:00:00 /rdsi/PUBLIC/raad/data/www.ncei.noaa.gov/data/sea-… /rds…
 5 1981-09-05 00:00:00 /rdsi/PUBLIC/raad/data/www.ncei.noaa.gov/data/sea-… /rds…
 6 1981-09-06 00:00:00 /rdsi/PUBLIC/raad/data/www.ncei.noaa.gov/data/sea-… /rds…
 7 1981-09-07 00:00:00 /rdsi/PUBLIC/raad/data/www.ncei.noaa.gov/data/sea-… /rds…
 8 1981-09-08 00:00:00 /rdsi/PUBLIC/raad/data/www.ncei.noaa.gov/data/sea-… /rds…
 9 1981-09-09 00:00:00 /rdsi/PUBLIC/raad/data/www.ncei.noaa.gov/data/sea-… /rds…
10 1981-09-10 00:00:00 /rdsi/PUBLIC/raad/data/www.ncei.noaa.gov/data/sea-… /rds…
# ℹ 15,852 more rows
…
That is a huge problem if someone tries to read a multi-day dataset with this function, but otherwise won’t cause problems for value extraction. It’s a break in the assumptions our file-handling has made though and we need to fix it.

If we get these files from our object storage we can do this now in a less language-specific way.

(here we are accessing files that are otherwise available directly from Copernicus marine, but please treat this as an example of how we can increment support in our existing tools rather than as an example of “best practice” if we were to choose the best options off the shelf today)

objects <- arrow::read_parquet("https://projects.pawsey.org.au/idea-objects/idea-curated-objects.parquet")
## dataset identifier we want
dsid <- "SEALEVEL_GLO_PHY_L4"

(altimetryfiles <- dplyr::filter(objects, Dataset == dsid))

# A tibble: 11,610 × 4
   Bucket                                      Key   date                Dataset
   <chr>                                       <chr> <dttm>              <chr>  
 1 idea-sealevel-glo-phy-l4-rep-observations-… data… 1993-01-01 00:00:00 SEALEV…
 2 idea-sealevel-glo-phy-l4-rep-observations-… data… 1993-01-02 00:00:00 SEALEV…
 3 idea-sealevel-glo-phy-l4-rep-observations-… data… 1993-01-03 00:00:00 SEALEV…
 4 idea-sealevel-glo-phy-l4-rep-observations-… data… 1993-01-04 00:00:00 SEALEV…
 5 idea-sealevel-glo-phy-l4-rep-observations-… data… 1993-01-05 00:00:00 SEALEV…
 6 idea-sealevel-glo-phy-l4-rep-observations-… data… 1993-01-06 00:00:00 SEALEV…
 7 idea-sealevel-glo-phy-l4-rep-observations-… data… 1993-01-07 00:00:00 SEALEV…
 8 idea-sealevel-glo-phy-l4-rep-observations-… data… 1993-01-08 00:00:00 SEALEV…
 9 idea-sealevel-glo-phy-l4-rep-observations-… data… 1993-01-09 00:00:00 SEALEV…
10 idea-sealevel-glo-phy-l4-rep-observations-… data… 1993-01-10 00:00:00 SEALEV…
# ℹ 11,600 more rows
…
  altimetryfiles[index, ]
}

get_altimetry("2024-11-11")

# A tibble: 1 × 4
  Bucket                               Key           date                Dataset
  <chr>                                <chr>         <dttm>              <chr>  
1 idea-sealevel-glo-phy-l4-nrt-008-046 data.marine.… 2024-11-11 00:00:00 SEALEV…

get_altimetry(seq(as.Date("1994-01-01"), as.Date("2024-01-01"), by = "1 year"))

# A tibble: 31 × 4
   Bucket                                      Key   date                Dataset
   <chr>                                       <chr> <dttm>              <chr>  
 1 idea-sealevel-glo-phy-l4-rep-observations-… data… 1994-01-01 00:00:00 SEALEV…
 2 idea-sealevel-glo-phy-l4-rep-observations-… data… 1995-01-01 00:00:00 SEALEV…
 3 idea-sealevel-glo-phy-l4-rep-observations-… data… 1996-01-01 00:00:00 SEALEV…
 4 idea-sealevel-glo-phy-l4-rep-observations-… data… 1997-01-01 00:00:00 SEALEV…
 5 idea-sealevel-glo-phy-l4-rep-observations-… data… 1998-01-01 00:00:00 SEALEV…
 6 idea-sealevel-glo-phy-l4-rep-observations-… data… 1999-01-01 00:00:00 SEALEV…
 7 idea-sealevel-glo-phy-l4-rep-observations-… data… 2000-01-01 00:00:00 SEALEV…
 8 idea-sealevel-glo-phy-l4-rep-observations-… data… 2001-01-01 00:00:00 SEALEV…
 9 idea-sealevel-glo-phy-l4-rep-observations-… data… 2002-01-01 00:00:00 SEALEV…
10 idea-sealevel-glo-phy-l4-rep-observations-… data… 2003-01-01 00:00:00 SEALEV…
# ℹ 21 more rows
…
